<?xml version="1.0" encoding="UTF-8" standalone="no"?>
<!-- Created with Inkscape (http://www.inkscape.org/) -->

<svg
   xmlns:dc="http://purl.org/dc/elements/1.1/"
   xmlns:cc="http://creativecommons.org/ns#"
   xmlns:rdf="http://www.w3.org/1999/02/22-rdf-syntax-ns#"
   xmlns:svg="http://www.w3.org/2000/svg"
   xmlns="http://www.w3.org/2000/svg"
   xmlns:xlink="http://www.w3.org/1999/xlink"
   xmlns:sodipodi="http://sodipodi.sourceforge.net/DTD/sodipodi-0.dtd"
   xmlns:inkscape="http://www.inkscape.org/namespaces/inkscape"
   width="550"
   height="708.32178"
   id="svg2"
   version="1.1"
   inkscape:version="0.47pre4 r22446"
   sodipodi:docname="Nuovo documento 1">
  <defs
     id="defs4">
    <inkscape:perspective
       id="perspective3750"
       inkscape:persp3d-origin="-79.58073 : -72.419711 : 1"
       inkscape:vp_z="2901.4949 : 339.76021 : 1"
       inkscape:vp_y="0 : 1335.0655 : 0"
       inkscape:vp_x="73.34069 : 652.64001 : 1"
       sodipodi:type="inkscape:persp3d" />
    <inkscape:perspective
       sodipodi:type="inkscape:persp3d"
       inkscape:vp_x="196.5793 : 753.65526 : 1"
       inkscape:vp_y="0 : 1335.0655 : 0"
       inkscape:vp_z="3024.7335 : 440.77546 : 1"
       inkscape:persp3d-origin="43.65788 : 28.595539 : 1"
       id="perspective10" />
    <inkscape:perspective
       id="perspective3608"
       inkscape:persp3d-origin="0.5 : 0.33333333 : 1"
       inkscape:vp_z="1 : 0.5 : 1"
       inkscape:vp_y="0 : 1000 : 0"
       inkscape:vp_x="0 : 0.5 : 1"
       sodipodi:type="inkscape:persp3d" />
    <radialGradient
       inkscape:collect="always"
       xlink:href="#linearGradient3592-0"
       id="radialGradient3598-5"
       cx="-340.8963"
       cy="465.09015"
       fx="-340.8963"
       fy="465.09015"
       r="30.5"
       gradientTransform="matrix(-5.8226697,-0.06623958,0.08845148,-7.775161,-2239.4577,4084.7785)"
       gradientUnits="userSpaceOnUse" />
    <linearGradient
       inkscape:collect="always"
       id="linearGradient3592-0">
      <stop
         style="stop-color:#000000;stop-opacity:1;"
         offset="0"
         id="stop3594-0" />
      <stop
         style="stop-color:#000000;stop-opacity:0;"
         offset="1"
         id="stop3596-8" />
    </linearGradient>
    <inkscape:perspective
       id="perspective3670"
       inkscape:persp3d-origin="0.5 : 0.33333333 : 1"
       inkscape:vp_z="1 : 0.5 : 1"
       inkscape:vp_y="0 : 1000 : 0"
       inkscape:vp_x="0 : 0.5 : 1"
       sodipodi:type="inkscape:persp3d" />
    <radialGradient
       r="30.5"
       fy="465.09015"
       fx="-340.8963"
       cy="465.09015"
       cx="-340.8963"
       gradientTransform="matrix(-5.8226697,-0.06623958,0.08845148,-7.775161,-1667.6582,4084.5408)"
       gradientUnits="userSpaceOnUse"
       id="radialGradient3617-6"
       xlink:href="#linearGradient3592-0-2"
       inkscape:collect="always" />
    <linearGradient
       inkscape:collect="always"
       id="linearGradient3592-0-2">
      <stop
         style="stop-color:#000000;stop-opacity:1;"
         offset="0"
         id="stop3594-0-1" />
      <stop
         style="stop-color:#000000;stop-opacity:0;"
         offset="1"
         id="stop3596-8-0" />
    </linearGradient>
    <radialGradient
       inkscape:collect="always"
       xlink:href="#linearGradient3592-0-2"
       id="radialGradient3738"
       gradientUnits="userSpaceOnUse"
       gradientTransform="matrix(-5.8226697,-0.06623958,0.08845148,-7.775161,-1636.5314,4203.1858)"
       cx="-340.8963"
       cy="465.09015"
       fx="-340.8963"
       fy="465.09015"
       r="30.5" />
    <radialGradient
       inkscape:collect="always"
       xlink:href="#linearGradient3592-0"
       id="radialGradient3741"
       gradientUnits="userSpaceOnUse"
       gradientTransform="matrix(-5.8226697,-0.06623958,0.08845148,-7.775161,-1729.3091,4194.4438)"
       cx="-340.8963"
       cy="465.09015"
       fx="-340.8963"
       fy="465.09015"
       r="30.5" />
  </defs>
  <sodipodi:namedview
     id="base"
     pagecolor="#ffffff"
     bordercolor="#666666"
     borderopacity="1.0"
     inkscape:pageopacity="0.0"
     inkscape:pageshadow="2"
     inkscape:zoom="0.49497475"
     inkscape:cx="104.45041"
     inkscape:cy="284.10374"
     inkscape:document-units="px"
     inkscape:current-layer="layer1"
     showgrid="false"
     inkscape:window-width="1256"
     inkscape:window-height="753"
     inkscape:window-x="24"
     inkscape:window-y="24"
     inkscape:window-maximized="1" />
  <metadata
     id="metadata7">
    <rdf:RDF>
      <cc:Work
         rdf:about="">
        <dc:format>image/svg+xml</dc:format>
        <dc:type
           rdf:resource="http://purl.org/dc/dcmitype/StillImage" />
        <dc:title></dc:title>
      </cc:Work>
    </rdf:RDF>
  </metadata>
  <g
     inkscape:groupmode="layer"
     id="layer2"
     inkscape:label="sotto"
     transform="translate(-50.499358,-130.34672)" />
  <g
     inkscape:label="Livello 1"
     inkscape:groupmode="layer"
     id="layer1"
     transform="translate(-50.499358,-130.34672)">
    <path
       id="path3754"
       style="fill:#afafde;fill-opacity:1;fill-rule:evenodd;stroke:none"
       d="M 141.57453,522.30044 68.499358,697.98266 386.10282,688.81828 323.58658,527.86358 z" />
    <path
       id="path3756"
       style="fill:#8686bf;fill-opacity:1;fill-rule:evenodd;stroke:none"
       d="m 141.57453,408.0886 -73.075172,85.94435 0,203.94971 73.075172,-175.68222 z" />
    <path
       id="path3758"
       style="fill:#353564;fill-opacity:1;fill-rule:evenodd;stroke:none"
       d="m 141.57453,408.0886 0,114.21184 182.01205,5.56314 0,-107.09551 z" />
    <path
       id="path3760"
       style="fill:#e9e9ff;fill-opacity:1;fill-rule:evenodd;stroke:none"
       d="m 323.58658,420.76807 62.51624,85.73379 0,182.31642 -62.51624,-160.9547 z" />
    <path
       id="path3762"
       style="fill:#4d4d9f;fill-opacity:1;fill-rule:evenodd;stroke:none"
       d="M 141.57453,408.0886 68.499358,494.03295 386.10282,506.50186 323.58658,420.76807 z" />
    <path
       id="path3764"
       style="fill:#d7d7ff;fill-opacity:1;fill-rule:evenodd;stroke:none"
       d="m 68.499358,494.03295 0,203.94971 317.603462,-9.16438 0,-182.31642 z" />
    <rect
       style="fill:url(#radialGradient3741);fill-opacity:1;stroke:#5c5a60;stroke-width:1;stroke-miterlimit:4;stroke-opacity:1;stroke-dasharray:none"
       id="rect2818-4"
       width="60"
       height="257.14285"
       x="266.7554"
       y="518.49231"
       ry="30"
       transform="matrix(0.96799802,0.25095784,-0.25095784,0.96799802,0,0)" />
    <rect
       style="fill:url(#radialGradient3738);fill-opacity:1;stroke:#5c5a60;stroke-width:1;stroke-miterlimit:4;stroke-opacity:1;stroke-dasharray:none"
       id="rect2818-4-4"
       width="60"
       height="257.14285"
       x="359.53314"
       y="527.23425"
       ry="30"
       transform="matrix(0.98638855,0.16443122,-0.16443122,0.98638855,0,0)" />
    <path
       style="fill:none;stroke:#000000;stroke-width:50;stroke-linecap:butt;stroke-linejoin:miter;stroke-miterlimit:4;stroke-opacity:1;stroke-dasharray:none"
       d="m 232.32809,414.45084 c 2.31422,-58.03461 30.0459,-129.11263 86.55027,-154.88915 41.93483,-12.06837 69.6749,42.58696 112.33009,28.81097 66.75032,-9.07914 117.78599,-66.79488 131.3187,-130.85027 l 0.75217,-2.17567"
       id="path3700"
       sodipodi:nodetypes="ccccc" />
  </g>
</svg>
